<?xml version="1.0" encoding="utf-8"?>
<!-- Generator: Adobe Illustrator 27.2.0, SVG Export Plug-In . SVG Version: 6.00 Build 0)  -->
<svg version="1.1" id="Vrstva_1" xmlns="http://www.w3.org/2000/svg" xmlns:xlink="http://www.w3.org/1999/xlink" x="0px" y="0px"
	 viewBox="0 0 1190.6 841.9" style="enable-background:new 0 0 1190.6 841.9;" xml:space="preserve">
<style type="text/css">
	.st0{fill:#E48123;}
	.st1{fill:#231916;}
	.st2{fill:#F39A1B;}
	.st3{fill:#1A1532;}
	.st4{fill:#FED300;}
	.st5{fill:#111211;}
	.st6{fill:#191534;}
	.st7{fill:#F08700;}
	.st8{fill:#5DA2BD;}
	.st9{fill:#EB6E08;}
	.st10{fill:#F4A960;}
	.st11{fill:#CE8F4A;}
	.st12{fill:#FFC07B;}
	.st13{fill:#EDEDED;}
	.st14{fill:#D1D1D1;}
</style>
<g>
	<g>
		<path class="st0" d="M686.7,596.7c-15.4,58.7-75.8,114.7-144.5,130.9c-59,14-124.6-31.6-123.7-59.6c1-31.5,40.6-29.8,60.5,3.6
			c30.4,51.2,134.5,15.3,173.4-56L686.7,596.7z"/>
	</g>
	<g>
		<path class="st1" d="M519.7,734.3c-31.6,0-62.6-13.5-82.2-29.6c-15-12.2-23.3-25.6-23-36.8c0.4-13.4,7.2-22.7,18.5-25.6
			c14.4-3.7,36,4.5,49.6,27.3c11.2,18.8,31.5,22.4,46.4,22.1c44.6-0.8,96.2-34.3,119.9-77.9c1.1-2,3.5-2.7,5.5-1.6
			c2,1.1,2.7,3.5,1.6,5.5c-25,46-79.6,81.3-126.9,82.2c-24.4,0.4-43.3-8.8-53.6-26.1c-11.5-19.4-29.1-26.5-40.6-23.6
			c-7.7,2-12.1,8.4-12.4,18c-0.3,8.5,7.2,19.7,20,30.2c23,18.8,62.4,33.9,98.7,25.3c66.7-15.8,126.2-69.6,141.5-128
			c0.6-2.2,2.8-3.5,5-2.9c2.2,0.6,3.5,2.8,2.9,5c-16,61.1-78,117.4-147.5,133.8C535.5,733.4,527.6,734.3,519.7,734.3"/>
	</g>
	<g>
		<path class="st2" d="M686.7,596.7c-15.4,58.7-75.8,114.7-144.5,130.9c-59,14-124.6-31.6-123.7-59.6c1-31.5,40.6-29.8,60.5,3.6
			c30.4,51.2,134.5,15.3,173.4-56L686.7,596.7z"/>
		<path class="st3" d="M519.7,733.7c-31.5,0-62.3-13.5-81.9-29.5c-14.8-12.1-23.1-25.3-22.8-36.3c0.4-13.1,7-22.3,18.1-25.1
			c14.2-3.7,35.5,4.5,48.9,27c11.3,19,31.8,22.7,46.9,22.4c44.8-0.8,96.5-34.5,120.4-78.2l0.5-0.9l42.3-23.4l-2.1,7.9
			c-15.9,60.9-77.8,117-147.1,133.5C535.4,732.9,527.5,733.7,519.7,733.7z M440.3,649c-1.9,0-3.7,0.2-5.4,0.7
			c-7.9,2-12.5,8.6-12.8,18.5c-0.3,8.6,7.3,20.1,20.2,30.7c23.1,18.9,62.7,34.1,99.2,25.4c63.8-15.1,121.1-65,139.5-120.3L655,618.2
			c-25.1,45.4-79.1,80.1-125.9,81c-24.1,0.5-42.9-8.7-53.1-25.8C466.1,656.7,451.5,649,440.3,649z"/>
	</g>
	<g>
		<path class="st1" d="M519.7,734.3c-31.6,0-62.6-13.5-82.2-29.6c-15-12.2-23.3-25.6-23-36.8c0.4-13.4,7.2-22.7,18.5-25.6
			c14.4-3.7,36,4.5,49.6,27.3c11.2,18.8,31.5,22.4,46.4,22.1c44.6-0.8,96.2-34.3,119.9-77.9c1.1-2,3.5-2.7,5.5-1.6
			c2,1.1,2.7,3.5,1.6,5.5c-25,46-79.6,81.3-126.9,82.2c-24.4,0.4-43.3-8.8-53.6-26.1c-11.5-19.4-29.1-26.5-40.6-23.6
			c-7.7,2-12.1,8.4-12.4,18c-0.3,8.5,7.2,19.7,20,30.2c23,18.8,62.4,33.9,98.7,25.3c66.7-15.8,126.2-69.6,141.5-128
			c0.6-2.2,2.8-3.5,5-2.9c2.2,0.6,3.5,2.8,2.9,5c-16,61.1-78,117.4-147.5,133.8C535.5,733.4,527.6,734.3,519.7,734.3"/>
	</g>
</g>
<g>
	<g>
		<path class="st4" d="M462.6,465.4c8.1,22.3,44.8-42.4,34.3-59s-29.1-36.5-37.6-42.1s-33.7,1.7-33.8,26.2
			C425.5,412.2,443.7,413.1,462.6,465.4z"/>
	</g>
	<g>
		<path class="st5" d="M467.6,474.2c-0.3,0-0.6,0-0.9,0c-2.1-0.2-6-1.5-8.1-7.4l0,0c-9.7-26.9-19.2-39.8-26.1-49.3
			c-6.5-8.9-11.3-15.4-11.3-27c0-12.4,6-22.8,16.5-28.4c8.4-4.5,18.1-5,23.8-1.3c9.1,6,28,26.2,38.9,43.4c7.4,11.7-3.1,37.3-12,51.6
			C483.1,464.3,475.3,474.2,467.6,474.2z M466.5,464c0.5,1.3,0.9,1.8,1.1,1.9c0.6,0.1,4.7-1.4,11.3-10.9
			c11.5-16.6,18.6-39.5,14.4-46.3c-10.1-16-28.2-35.5-36.4-40.9c-2.6-1.7-9.1-1.6-15.2,1.7c-4.5,2.4-12.1,8.4-12.1,21
			c0,8.9,3.4,13.6,9.6,22.1C446.5,422.5,456.4,435.9,466.5,464L466.5,464z"/>
	</g>
</g>
<g>
	<g>
		<path class="st4" d="M751.4,469c1.4,115.4-67,170.6-149.6,170.6s-175.2-1.2-175.2-95.4c0-46.2,30.2-60.6,46.4-91.4
			c26.6-50.4-13.1-132.1,84.9-158.6C637.7,272.6,748.6,239.6,751.4,469z"/>
	</g>
	<g>
		<path class="st6" d="M601.9,643.8c-79.9,0-179.4,0-179.4-99.6c0-32.6,14.5-50.3,28.5-67.4c6.5-8,13.3-16.2,18.4-25.9
			c8.3-15.7,9.8-34.6,11.5-54.7c3.4-41,7.2-87.4,76-106l3-0.8c44.6-12.1,100.1-27.1,140.7,3.6c35.9,27.1,53.9,84.7,55,176.1l0,0
			c0.7,55.9-15.1,101.8-45.5,132.7C682.8,629.2,645.4,643.8,601.9,643.8z M641,283.1c-25.8,0-53.3,7.5-78.9,14.4l-3,0.8
			c-63.2,17.1-66.4,56.7-69.9,98.6c-1.6,20-3.3,40.7-12.4,57.9c-5.5,10.4-12.5,19-19.3,27.3c-13.7,16.7-26.6,32.5-26.6,62.1
			c0,91.2,90.9,91.2,171,91.2c41.2,0,76.6-13.7,102.2-39.7c28.9-29.2,43.8-73,43.1-126.7l0,0c-1.1-88.6-18-144-51.7-169.5
			C679.4,287.4,660.7,283.1,641,283.1z"/>
	</g>
</g>
<g>
	<g>
		<path class="st7" d="M455.8,349.5c-36.4,10.3-40.1-6.5-31.7-8.4s30.8-14.9,42-26.1L455.8,349.5z"/>
	</g>
	<g>
		<path class="st6" d="M435.5,357c-9.5,0-14.2-2.9-16.5-5.2c-2.5-2.5-3.4-5.8-2.6-8.9c0.9-3,3.4-5.2,6.7-6c7.2-1.6,28.9-14,39.9-25
			c1.4-1.4,3.5-1.6,5.1-0.6c1.7,1,2.4,3,1.9,4.8l-10.3,34.5c-0.4,1.4-1.5,2.5-2.9,2.8C448,356.1,441,357,435.5,357z M424.5,345.4
			c0.1,0,0.3,0.5,1.2,1.1c1.7,1.1,8.4,4.3,26.8-0.4l5.6-18.9c-11.7,8.6-26.1,16.5-33.1,18C424.4,345.3,424.5,345.4,424.5,345.4z"/>
	</g>
</g>
<g>
	<g>
		<path class="st8" d="M462.9,360.5c-0.4,0.3-0.8,0.6-1.2,1c0.6-0.2,1.2-0.4,1.8-0.7C463.3,360.7,463.1,360.6,462.9,360.5z"/>
	</g>
</g>
<g>
	<g>
		<path class="st8" d="M503.9,354.2c-0.6,0-1.2,0-1.9,0c-13.5,0-26.5,2.4-38.5,6.6C478.9,368.4,492.2,362.6,503.9,354.2z"/>
	</g>
</g>
<g>
	<g>
		<path class="st4" d="M733.8,350.4c-21.5-60.6-66.2-101.7-127.8-103.6C544.4,245,493.1,272,466.1,315c-18.2,28.9-4.7,44.8,3.7,48.5
			c8.4,3.7,43.8-10.3,54.1-28.9c24.3,14.9,51.3,8.4,74.6,0.9"/>
	</g>
	<g>
		<path class="st6" d="M473.5,368.2c-2.1,0-4-0.3-5.4-0.9c-5-2.2-11.2-7.7-13.9-16.6c-2.3-7.6-2.7-20.4,8.4-38
			c28.8-45.7,82.5-71.9,143.5-70c60.4,1.8,108.4,40.6,131.6,106.4c0.8,2.2-0.4,4.6-2.6,5.4c-2.2,0.8-4.6-0.4-5.4-2.6
			c-22.1-62.3-67.2-99-124-100.8c-58.1-1.8-109,23-136.3,66.1c-7.4,11.8-10,22.5-7.4,31c1.9,6.2,6.2,10,9.3,11.4
			c5.3,2.4,39-9.3,48.7-27.1c0.6-1,1.5-1.7,2.6-2c1.1-0.3,2.3-0.1,3.3,0.5c23,14.1,48.8,7.7,71.2,0.5c2.2-0.7,4.6,0.5,5.3,2.7
			s-0.5,4.6-2.7,5.3c-24.7,7.9-50.7,13.3-74.5,0.7C513.9,356.1,487.2,368.2,473.5,368.2z"/>
	</g>
</g>
<g>
	<g>
		<path class="st7" d="M678.8,273c-16.8-1.4-3.7,11.2,1.9,15.9c5.6,4.7,45.7,41,83,29.9c37.3-11.2,48.5-42,41-43.8
			C797.3,273,713.3,275.8,678.8,273z"/>
	</g>
	<g>
		<path class="st6" d="M748.7,325c-21,0-44.8-10.9-69.7-32.1l-1-0.9c-14-11.7-11.8-16.9-11.1-18.7c2.2-5.4,9.8-4.8,12.3-4.6l0,0
			c19,1.5,53.6,1.4,81.3,1.2c27.2-0.1,41.6-0.2,45.3,0.8c3.3,0.8,5.3,3.7,5.4,7.7c0.2,10.2-13.5,34.4-46.2,44.2
			C759.7,324.3,754.3,325,748.7,325z M675.3,277.1c1.1,1.8,3.8,4.9,8.1,8.5l1.1,0.9c28.8,24.6,56.6,34.6,78.1,28.1
			c20.5-6.1,33.1-18.8,38-28.7c1.8-3.7,2.2-6.1,2.2-7.2c-5.1-0.5-24-0.4-42.2-0.3c-27.9,0.1-62.7,0.3-82.1-1.3
			C677,277,676,277.1,675.3,277.1z"/>
	</g>
	<g>
		<path class="st9" d="M703.5,289.8c-11-0.7-2.4,6,1.2,8.5c3.7,2.5,29.9,22,54.4,16c24.4-6,31.8-22.5,26.9-23.5
			C781.1,289.8,726.1,291.3,703.5,289.8z"/>
	</g>
</g>
<g>
	<g>
		<path class="st6" d="M516.5,310.3c-6.7,5-4.7,11.2,2.8,12.1s8,1.4,14.9-3.7c7.5-5.6,8.4-14.9,0-14
			C525.8,305.6,520.2,307.5,516.5,310.3z"/>
	</g>
</g>
<g>
	<g>
		<circle class="st6" cx="488.5" cy="314" r="8.4"/>
	</g>
</g>
<g>
	<circle class="st6" cx="580.7" cy="290.7" r="8.4"/>
</g>
<g>
	<g>
		<g>
			<path class="st4" d="M431.1,521.2c-18.4-22.1-46.9-12.4-47.4,15.2c-0.4,22.7,27.2,71.2,52,83.4c21.5,10.6,22.4-15,20.7-24
				C453.3,579.8,440.9,533,431.1,521.2z"/>
		</g>
		<g>
			<path class="st6" d="M444.9,626.5c-3,0-6.6-0.8-11-2.9c-26.2-12.9-54.8-63-54.4-87.2c0.2-14.4,7.6-25.8,19.3-30
				c12.1-4.3,25.7,0.4,35.5,12.2l0,0c11.2,13.4,23.8,64,26.2,76.4c1,5.3,1.9,21.9-7,28.7C451.5,625.2,448.7,626.5,444.9,626.5z
				 M407.8,513.2c-2.1,0-4.2,0.3-6.3,1.1c-8.4,3-13.5,11.2-13.7,22.2c-0.4,21.1,26.7,68.3,49.7,79.6c4.9,2.4,8.5,2.7,10.8,1
				c4.4-3.4,5.1-14.2,3.9-20.5c-3.3-16.9-15.5-61.9-24.4-72.6l0,0C422.1,517,414.8,513.2,407.8,513.2z"/>
		</g>
	</g>
</g>
<g>
	<g>
		<g>
			<path class="st4" d="M454.1,363.9c-10.2-4.1-35.8,13.3-32.8,29.7c0.6,3.3,1.8,5.9,3.5,7.9c6.7,8,20.5,6.1,30.3-3.8
				C467.5,385.4,464.1,367.9,454.1,363.9z"/>
		</g>
		<g>
			<path class="st6" d="M436.2,410.7c-0.3,0-0.7,0-1,0c-5.5-0.3-10.3-2.6-13.6-6.5c-2.2-2.6-3.7-5.9-4.4-9.8
				c-1.6-8.7,3.1-18.5,12.6-26.3c7.5-6.2,18.4-11.1,25.9-8.1c5.5,2.2,9.6,7.6,11,14.4c1.9,9.2-1.3,19-8.6,26.3
				C451.8,407,443.7,410.7,436.2,410.7z M450.6,367.5c-3.6,0-9.8,2.4-15.5,7.1c-5.5,4.5-10.9,11.7-9.6,18.3c0.5,2.4,1.3,4.4,2.6,6
				c2.2,2.7,5.3,3.4,7.5,3.5c5.5,0.2,11.7-2.6,16.6-7.5c5.3-5.3,7.6-12.2,6.3-18.6c-0.8-4-3-7.1-5.9-8.3l0,0
				C452.1,367.6,451.4,367.5,450.6,367.5z"/>
		</g>
	</g>
</g>
<g>
	<path class="st10" d="M771.7,77.1L554.7,421.2c-2.2,6.2-6.3,15.2-14.7,22.7c-5.7,5.1-11.1,7.5-13.9,8.8
		c-21.4,9.9-41.2,23-46.7,26.9c-8.6,6-27.5,19.3-36.6,43.4c-2.7,7.2-10.1,26.9-1.4,47.8c4.4,10.6,11.3,17.4,15.7,21.2l9.8,6.1
		c5.3,2.3,14.5,5.4,25.9,4.7c22.6-1.4,36.9-16.9,42.2-22.5c17.6-18.9,21.1-41.7,22.7-52c1-6.6,4-30.3,3.3-53.8
		c-0.1-3.1-0.3-9,1.7-16.4c3-10.8,9.2-18.5,13.8-23.3L788.6,87.5L785.3,74L771.7,77.1z"/>
	<path class="st6" d="M489.4,607.4c-8.2,0-16.3-1.7-24.3-5.2l-0.6-0.3l-10.4-6.5c-7.6-6.4-13.3-14.1-17-22.9
		c-9.4-22.5-1.6-43.3,1.4-51.1c9.6-25.5,29.6-39.5,38.2-45.5c0.9-0.6,22.8-15.9,47.4-27.3l0.2-0.1c2.8-1.3,7.5-3.5,12.5-8
		c6-5.4,10.5-12.4,13.5-20.9l0.2-0.5l0.3-0.4L768.9,73.1l19.7-4.5l4.7,19.7l-1,1.6L580.2,437.6l-0.4,0.4
		c-6.3,6.4-10.6,13.6-12.7,21.3c-1.8,6.5-1.7,11.7-1.6,14.8l0,0.3c0.8,27.1-3.2,53.5-3.4,54.6c-1.6,10.3-5.3,34.5-23.8,54.4
		c-5.7,6.1-20.9,22.4-45.2,23.9C491.9,607.4,490.6,607.4,489.4,607.4z M469,594.1c7.7,3.3,15.7,4.7,23.6,4.2
		c20.8-1.3,34.2-15.7,39.2-21.1c16.7-17.9,19.9-39.3,21.5-49.6c0.2-1.1,4-26.7,3.3-53l0-0.2c-0.1-3.4-0.3-9.6,1.9-17.4
		c2.5-9.1,7.4-17.4,14.6-24.8L783.8,86.7l-1.8-7.4l-7.4,1.7L558.7,423.2c-3.5,9.7-8.8,17.8-15.8,24.1c-6,5.4-11.7,8-14.8,9.5
		l-0.2,0.1c-23.9,11-45.1,25.9-46,26.5c-8.5,6-26.3,18.5-34.9,41.3c-2.6,6.9-9.5,25.3-1.5,44.5c3.1,7.3,7.8,13.8,14.2,19.3
		L469,594.1z"/>
</g>
<g>
	<g>
		<path class="st11" d="M727.7,127.9c0-4.8-3.8-8.6-8.6-8.7c-4.8,0-8.6,3.8-8.7,8.6c0,4.8,3.8,8.6,8.6,8.7l2.7,0l9.4,5.6l3.5-5.6
			l-7-4.5L727.7,127.9z"/>
		<path d="M731.8,144.8l-10.6-6.4l-2.1,0c-5.9,0-10.6-4.8-10.6-10.7c0-2.8,1.1-5.5,3.1-7.5c2-2,4.7-3.1,7.5-3.1c0,0,0,0,0,0
			c5.9,0,10.6,4.8,10.6,10.7l0,0.1l-0.1,3l7.7,4.9L731.8,144.8z M719.1,121.2c-1.8,0-3.4,0.7-4.7,1.9c-1.3,1.2-2,2.9-2,4.7
			c0,3.6,2.9,6.6,6.6,6.6l3.2,0l8.1,4.9l1.4-2.3l-6.3-4l0.2-5.3C725.7,124.2,722.8,121.2,719.1,121.2
			C719.1,121.2,719.1,121.2,719.1,121.2z"/>
	</g>
	<g>
		<g>
			
				<rect x="549.5" y="437.6" transform="matrix(0.5272 -0.8497 0.8497 0.5272 -122.3012 681.202)" class="st12" width="3" height="25.8"/>
		</g>
		<g>
			
				<rect x="555.8" y="427.4" transform="matrix(0.5272 -0.8497 0.8497 0.5272 -110.645 681.7562)" class="st12" width="3" height="25.8"/>
		</g>
		<g>
			
				<rect x="564.2" y="414" transform="matrix(0.5272 -0.8497 0.8497 0.5272 -95.2692 682.4877)" class="st12" width="3" height="25.8"/>
		</g>
		<g>
			
				<rect x="575.3" y="396" transform="matrix(0.5272 -0.8497 0.8497 0.5272 -74.6853 683.4669)" class="st12" width="3" height="25.8"/>
		</g>
		<g>
			
				<rect x="582.6" y="384.2" transform="matrix(0.5272 -0.8497 0.8497 0.5272 -61.2936 684.1042)" class="st12" width="3" height="25.8"/>
		</g>
		<g>
			
				<rect x="592.7" y="368" transform="matrix(0.5272 -0.8497 0.8497 0.5272 -42.6965 684.9825)" class="st12" width="3" height="25.8"/>
		</g>
		<g>
			
				<rect x="604.9" y="348.3" transform="matrix(0.5272 -0.8497 0.8497 0.5272 -20.2112 686.0524)" class="st12" width="3" height="25.8"/>
		</g>
		<g>
			
				<rect x="620.5" y="323.1" transform="matrix(0.5272 -0.8498 0.8498 0.5272 8.5635 687.4333)" class="st12" width="3" height="25.8"/>
		</g>
		<g>
			
				<rect x="632.5" y="303.7" transform="matrix(0.5272 -0.8498 0.8498 0.5272 30.7182 688.4872)" class="st12" width="3" height="25.8"/>
		</g>
		<g>
			
				<rect x="645.5" y="282.9" transform="matrix(0.5272 -0.8497 0.8497 0.5272 54.5202 689.6103)" class="st12" width="3" height="25.8"/>
		</g>
		<g>
			
				<rect x="666.5" y="249.1" transform="matrix(0.5272 -0.8497 0.8497 0.5272 93.2062 691.4483)" class="st12" width="3" height="25.8"/>
		</g>
		<g>
			
				<rect x="684" y="220.7" transform="matrix(0.5272 -0.8497 0.8497 0.5272 125.6109 692.9902)" class="st12" width="3" height="25.8"/>
		</g>
		<g>
			
				<rect x="701.6" y="192.4" transform="matrix(0.5272 -0.8497 0.8497 0.5272 158.0159 694.5319)" class="st12" width="3" height="25.8"/>
		</g>
		<g>
			
				<rect x="733.1" y="141.7" transform="matrix(0.5272 -0.8497 0.8497 0.5272 215.965 697.289)" class="st12" width="3" height="25.8"/>
		</g>
		<g>
			
				<rect x="729.9" y="146.8" transform="matrix(0.5272 -0.8498 0.8498 0.5272 210.1474 697.0219)" class="st12" width="3" height="25.8"/>
		</g>
		<g>
			<circle class="st6" cx="715.4" cy="185.5" r="2.9"/>
		</g>
		<g>
			<circle class="st6" cx="657.5" cy="278.9" r="2.9"/>
		</g>
		<g>
			<circle class="st6" cx="614.2" cy="348.6" r="2.9"/>
		</g>
		<g>
			<circle class="st6" cx="600.3" cy="371" r="2.9"/>
		</g>
		<g>
			<circle class="st6" cx="571.2" cy="417.9" r="2.9"/>
		</g>
	</g>
</g>
<g>
	<path class="st6" d="M489.4,607.4c-8.2,0-16.3-1.7-24.3-5.2l-0.6-0.3l-10.4-6.5c-7.6-6.4-13.3-14.1-17-22.9
		c-9.4-22.5-1.6-43.3,1.4-51.1c9.6-25.5,29.6-39.5,38.2-45.5c0.9-0.6,22.8-15.9,47.4-27.3l0.2-0.1c2.8-1.3,7.5-3.5,12.5-8
		c6-5.4,10.5-12.4,13.5-20.9l0.2-0.5l0.3-0.4L768.9,73.1l19.7-4.5l4.7,19.7l-1,1.6L580.2,437.6l-0.4,0.4
		c-6.3,6.4-10.6,13.6-12.7,21.3c-1.8,6.5-1.7,11.7-1.6,14.8l0,0.3c0.8,27.1-3.2,53.5-3.4,54.6c-1.6,10.3-5.3,34.5-23.8,54.4
		c-5.7,6.1-20.9,22.4-45.2,23.9C491.9,607.4,490.6,607.4,489.4,607.4z M469,594.1c7.7,3.3,15.7,4.7,23.6,4.2
		c20.8-1.3,34.2-15.7,39.2-21.1c16.7-17.9,19.9-39.3,21.5-49.6c0.2-1.1,4-26.7,3.3-53l0-0.2c-0.1-3.4-0.3-9.6,1.9-17.4
		c2.5-9.1,7.4-17.4,14.6-24.8L783.8,86.7l-1.8-7.4l-7.4,1.7L558.7,423.2c-3.5,9.7-8.8,17.8-15.8,24.1c-6,5.4-11.7,8-14.8,9.5
		l-0.2,0.1c-23.9,11-45.1,25.9-46,26.5c-8.5,6-26.3,18.5-34.9,41.3c-2.6,6.9-9.5,25.3-1.5,44.5c3.1,7.3,7.8,13.8,14.2,19.3
		L469,594.1z"/>
</g>
<g>
	<circle class="st11" cx="772.6" cy="98.7" r="7.3"/>
	<path d="M772.6,108.1c-1.7,0-3.4-0.5-4.9-1.4c-2.1-1.3-3.6-3.4-4.2-5.8c-0.6-2.4-0.2-4.9,1.2-7l0,0c1.3-2.1,3.4-3.6,5.8-4.2
		c2.4-0.6,4.9-0.2,7,1.2c4.4,2.7,5.7,8.5,3,12.8c-1.3,2.1-3.4,3.6-5.8,4.2C774,108,773.3,108.1,772.6,108.1z M772.6,93.4
		c-1.8,0-3.5,0.9-4.5,2.5v0c-0.7,1.2-1,2.6-0.7,4s1.2,2.6,2.4,3.3c1.2,0.7,2.6,1,4,0.7c1.4-0.3,2.6-1.2,3.3-2.4
		c1.5-2.5,0.8-5.8-1.7-7.3C774.6,93.7,773.6,93.4,772.6,93.4z"/>
</g>
<g>
	
		<rect x="470.2" y="558.4" transform="matrix(0.8497 0.5272 -0.5272 0.8497 368.1637 -170.1256)" class="st11" width="24.6" height="4.9"/>
</g>
<g>
	<path class="st4" d="M648.4,354.1c-35.5-14-80.2-5.6-103.6,14.9c-23.3,20.5-7.5,35.5,10.3,37.3c17.7,1.9,52.2-14,79.3-8.4
		s35.4,15.5,64.3,41.6"/>
</g>
<g>
	<path class="st6" d="M698.7,443.7c-1,0-2-0.4-2.8-1.1c-3.2-2.9-6.1-5.5-8.8-8c-22.2-20.3-30.5-27.9-53.5-32.6
		c-15-3.1-32.8,0.9-48.6,4.4c-11.9,2.6-22.3,4.9-30.3,4.1c-12.3-1.3-22.1-7.8-24.9-16.5c-2-6.2-1.4-16,12.3-28.1
		c25.6-22.6,73-29.4,107.9-15.7c2.2,0.9,3.2,3.3,2.4,5.4c-0.9,2.2-3.3,3.2-5.4,2.4c-32.2-12.7-75.8-6.5-99.2,14.2
		c-8,7.1-11.5,13.9-9.8,19.3c1.7,5.5,8.9,9.8,17.8,10.7c6.7,0.7,16.8-1.6,27.6-3.9c16.6-3.7,35.4-7.9,52.1-4.4
		c25.2,5.2,35.3,14.4,57.5,34.7c2.7,2.5,5.6,5.1,8.8,8c1.7,1.6,1.9,4.2,0.3,5.9C701,443.3,699.8,443.7,698.7,443.7z"/>
</g>
<g>
	<path class="st6" d="M508.8,489.7c-0.6-0.3-1.5-0.7-2.5-0.5c-0.4-0.2-1.8-1-3-0.7c-0.6,0.1-1,0.5-1.3,1.1c-0.1,0.1,0,0.2,0,0.3
		c0.1,0.1,0.2,0.2,0.3,0.2c0.3,0,1.3,0,1.7,0.3c0.4,0.3,0.8,0.7,0.6,1.2c-0.2,0.5-0.9,0.8-1.3,0.8c-0.1,0-0.3-0.1-0.3-0.5
		c0-0.1-0.1-0.3-0.2-0.3c-0.1-0.1-0.3-0.1-0.4,0c0,0-0.4,0.3-0.4,0.7c0,0.5,0.4,1,1.1,1.5c0.6,0.4,1.1,0.6,1.6,0.7
		c0.5,0.2,0.9,0.3,1.6,0.8c1.7,1.4,2.8,2.7,2.6,6.8c-0.1,1.4-0.4,2.4-0.9,3c-0.5,0.6-1.1,0.7-1.6,0.7c-0.6,0-1.1-0.3-1.3-0.6
		c-0.5-0.8-0.3-1.8-0.2-2.1c0,0,0.1,0,0.1,0c0.1,0,1.4-0.7,1.6-1.8c0.1-0.5-0.1-1-0.5-1.5c-0.7-0.8-1.9-2-3-3l-2.2-2.2
		c-0.1-0.1-0.3-0.2-0.4-0.1c-0.1,0.1-0.2,0.2-0.2,0.4c0,0.1,0.1,0.3,0.1,0.4c-0.7-0.4-4.5-3.5-5.6-7.1c-0.5-1.8-0.2-3.3,0.8-4.7
		c0.1-0.1,0.1-0.4-0.1-0.5c-0.1,0-1.3-1.1-2.7-0.9c-0.7,0.1-1.3,0.5-1.7,1.2c-0.7,1-0.8,2.7-0.4,4.6c0.5,2.2,1.8,5.1,4.2,6.5
		c3.1,1.8,3.8,2.7,3.9,3c0,0,0,0.1,0,0.1c-0.1,0.1-0.3,0.5-1.6-0.3l-0.1-0.1c-5.4-3.3-6.5-5.6-6.6-6.9c0-0.2,0.1-0.4,0.1-0.6
		c0.1-0.5,0.3-1.3-0.5-1.8c-0.4-0.2-0.8-0.3-1.3-0.1c-0.7,0.3-1.4,1-1.6,1.9c-0.4,1.3-0.1,3.9,1.7,5.6c2,1.8,6.4,3.7,7.8,4
		c0.3,0.1,0.5,0.2,0.5,0.3l0,0c-0.1,0.1-0.1,0.2-0.6,0.1c-2.2-0.3-6.2-1.7-8.3-3.2c-1.2-0.8-1-1.6-1-1.7c0,0,0,0,0-0.1l0,0
		c0.2-0.5,0.2-1.5-0.5-1.8c-0.5-0.3-1-0.3-1.5,0c-0.9,0.5-1.4,2-1.5,2.9c-0.2,2,1.1,3.1,1.7,3.5l0.2,0.2c0.9,0.8,3.4,1.2,5.8,1.6
		c1.5,0.2,3,0.5,3.5,0.7c0.2,0.1,0.3,0.1,0.4,0.2l0.1,0c0,0,0,0.1,0,0.1c-0.1,0.3-0.2,0.3-0.9,0.2l-0.1,0c-0.3,0-0.7,0-1.2,0
		c-1.7,0.1-4.6,0.2-6.8-0.9c0,0-0.4-0.2-0.4-0.2c-1.2-0.6-1.9-1-1.8-1.7c0.1-0.4,0.2-1.4-0.7-1.9c-0.4-0.3-1.1-0.1-1.7,0.5
		c-0.8,0.7-1.4,2-0.8,3.5c0.6,1.4,1.5,2.2,2,2.5c0.8,0.5,3.6,1.2,6,0.6c2.4-0.6,4.5-0.3,4.8-0.1c0.1,0.1,0.2,0.2,0.3,0.2
		c0,0,0,0.1,0,0.1c-0.1,0.3-0.2,0.3-0.4,0.2c0,0-0.1,0-0.1,0c-0.5,0-4.2-0.2-5.2,0.1c-1.4,0.4-5,1-5.7,0.6c-1.5-0.7-1.6-1.6-1.7-2.1
		c0-0.2-0.1-0.3-0.1-0.4c-0.3-0.5-0.9-0.8-1.5-0.6c-0.7,0.2-1.4,0.8-1.4,2.2c0,1.9,1.2,3,2.3,3.7c1.6,1,3.8,1,6.5-0.1
		c2.6-1.1,5.6-1,6.2-0.8c0.4,0.1,0.4,0.1,0.3,0.4c0,0.1,0,0.2-0.7,0.2c-1.4-0.1-6,1.3-7.2,1.8c-1.2,0.5-2.4,0.7-3.7,0.7l-0.1,0
		c-0.8,0-1.3-0.2-2.4-0.8c-0.5-0.3-0.7-0.7-0.9-1.2l-0.1-0.2c-0.2-0.4-0.6-0.7-1.1-0.9c-0.5-0.1-0.9,0-1.3,0.2
		c-0.9,0.6-1.4,1.9-1.2,2.6c0.2,0.8,1,2.3,2.2,3c1.8,1.1,5.5,0.6,7.9-0.4l1-0.4l5.8-2.2c1-0.1,1.2,0.1,1.3,0.1c0.1,0.1,0,0.2,0,0.3
		c-0.1,0.4-0.3,0.5-0.9,0.6l-0.4,0.1c-0.4,0.1-2.7,0.7-5.4,1.9c-2.9,1.2-9,3-10.2,2.2c-1.1-0.7-1.3-1-1.5-1.3
		c-0.1-0.2-0.2-0.4-0.6-0.7c-0.3-0.2-0.7-0.3-1.1-0.2c-0.5,0.1-0.9,0.5-1.3,1.1c-0.8,1.4,0.2,3.1,1,3.8c1.9,1.8,6.1,2.2,10.6-0.6
		c1.4-0.9,6.6-3.3,7.8-3.5c2.6-0.4,2.8-0.3,2.9-0.1c0,0.1,0,0.2,0,0.2c-0.1,0.2-0.4,0.4-0.8,0.5c-1.7,0.4-2.5,0.7-4.4,1.8l-1.2,0.7
		c-0.7,0.4-1.9,1.2-2.2,1.3c-0.2,0-0.4-0.1-0.7-0.2c-0.6-0.2-1.4-0.5-2,0.1c-0.6,0.6-0.7,1.3-0.4,1.9c0.4,0.7,1.5,1.3,3,1.1
		c1.6-0.3,2.4-1,3.2-1.7c0.4-0.3,0.8-0.7,1.3-1c1.1-0.7,2.3-1.2,3.6-1.5c1-0.2,1.5-0.1,1.6-0.1c0.1,0.1,0.1,0.3,0,0.4
		c-0.1,0.3-0.5,0.7-1.1,1c-0.4,0.2-1.3,0.3-2.1,0.4c-1.2,0.2-1.9,0.2-2.1,0.5c-0.4,0.5-0.5,1.1-0.3,1.6c0.2,0.5,0.7,0.9,1.4,1
		c0.7,0.1,3.6-1.5,3.9-1.7c0.3-0.2,1.2-0.4,1.6-0.2c0.1,0,0.1,0.1,0.1,0.1c0.1,0.5,0.1,0.6-1.1,1.3c-1.1,0.6-4.3,2.4-9.1,1.4
		c-0.1,0-0.3,0-0.4,0.1c-0.3,0.2-0.3,0.7-0.4,1.7l-0.1,1.1c0,0.2-0.1,0.4-0.1,0.4c-0.1,0-0.1,0-0.2,0l-9,0.3c0,0-0.1,0-0.1,0
		c0-0.1,0.1-0.1,0.1-0.2c0.1-0.1,0.1-0.2,0.2-0.3c0-0.1,0.3-1,0-1.5c-0.1-0.1-0.2-0.2-0.3-0.3c0.1-0.5,0.3-1.6-0.1-2.3
		c-0.2-0.3-0.4-0.4-0.7-0.5c-0.1,0-0.1,0-0.2,0c-0.1-0.1-0.1-0.2-0.2-0.3c-0.1-0.1-0.4-0.3-0.8-0.3c-0.8,0-2.3,0.8-2.7,1.6
		c-0.1,0.1,0,0.3,0.1,0.4c0.1,0.1,0.3,0.1,0.4,0.1c0.2-0.1,0.8-0.3,1-0.1c0.1,0.1,0.2,0.4,0.3,0.7c0.1,0.4,0.2,0.8,0.5,1
		c0.1,0,0.1,0.1,0.1,0.1c-0.2,0.1-0.6-0.3-0.7-0.5c-0.3-0.4-1.1-1-2-1c-0.5,0-1,0.2-1.2,0.5c-0.7,1-0.9,1.5-1,1.5
		c0,0.2,0,0.3,0.2,0.4c0.1,0.1,0.3,0.1,0.4-0.1c0.1-0.1,0.3-0.2,0.4-0.2c0,0,0,0.1,0,0.1c0,0.2,0.1,0.5,0.5,0.6
		c0.2,0.1,0.4,0,0.7-0.1c0.1,0,0.3-0.1,0.4-0.1l0,0c0.1,0.1,0.2,0.3,0.3,0.3c0,0,0,0-0.1,0.1c-0.1,0.1-0.2,0.1-0.4,0.2
		c-0.4,0.1-0.8,0.2-1,0.8c-0.2,0.2-0.8,0.7-0.8,1.2c0,0.8,0.1,0.8,0.3,1.3l0.1,0.1c0.2,0.3,0.3,0.5,0.6,0.8c0.1,0.1,0.2,0.1,0.4,0.1
		c0.1-0.1,0.2-0.2,0.2-0.3l0-0.8c0-0.1,0-0.1-0.1-0.2c0,0-0.1-0.2,0.1-0.3c0.2-0.2,2-0.4,2.8-0.3c0.4,0,1.3,0.8,1.2,1.4
		c0,0.2,0,0.4,0,0.5c-0.1,0.4-0.1,0.7,0.3,1.4c0.4,0.6,0.7,0.8,0.7,0.8c0.1,0,0.3,0.2,0.3,0.4c0,0.2-0.2,0.4-0.5,0.6
		c-0.1,0.1-0.2,0.2-0.1,0.3c0,0.1,0.1,0.2,0.2,0.3c0.8,0.2,2.3,0.3,2.7-1.2c0.3-0.8,0-1.2-0.3-1.4c-0.1-0.1-0.1-0.1-0.1-0.2
		c0-0.1,0-0.2,0.1-0.3c0.1-0.2,0.2-0.6,0.1-0.9c-0.1-0.1-0.2-0.2-0.3-0.2c0,0-0.4,0-0.7-0.3c-0.3-0.3-0.4-0.7-0.3-1.3
		c0-0.2,0.1-0.3,0.2-0.3c0.5-0.3,1.8-0.1,2.7,0.1l0.8,0.1c0.6,0.1,1.5,0.1,2.3,0c0.8,0,2-0.1,2.2,0.1c0.5,0.5,0.5,0.5,0.3,1.3
		l-0.1,0.5c0,0.2,0,0.4,0.2,0.5c0.8,0.6,7.5-2.6,7.5-2.6c0.9-0.6,2.7-1.2,3-1c0.2,0.5-1.4,2.3-3.6,3.2c-2.7,1.1-8.2,2.5-8.8,1.4
		c-0.2-0.3-0.5-0.5-0.9-0.6c-0.5,0-1,0.2-1.4,0.7c-0.5,0.8-0.5,1.8,0.1,2.6c0.7,1,2.1,1.4,3.1,1.1l4.2-1.3l0.3-0.1
		c0.5-0.1,1.4-0.3,1.4-0.2c0,0,0,0.1,0,0.2c-0.3,0.6-1.7,1.4-3.4,1.9c0,0-0.3,0.1-0.3,0.1c-1,0.3-2.6,0.8-3.2,0.2
		c-0.6-0.6-1.3-0.7-1.9-0.3c-0.6,0.4-0.9,1.4-0.3,2.4c0.4,0.7,1.5,1.3,2.8,1.2c1.5-0.2,3.2-0.8,4.1-1.5c0.9-0.7,1.9-1,2-0.8
		c0,0,0,0,0,0c0,0.3-0.2,1.1-2.6,2.2c-0.3,0.1-0.6,0.3-0.9,0.5c-0.9,0.5-2,1.2-2.7,0.9c-0.6-0.4-1.4-0.3-1.9,0.3
		c-0.5,0.5-0.5,1.1-0.2,1.7c0.3,0.5,0.9,0.9,1.6,1.1c0.6,0.1,1.5,0.2,2.6-0.6c0.1-0.1,0.3-0.2,0.6-0.4c2.9-2.3,3.8-2.6,4.1-2.5
		c0,0,0.1,0.2,0.1,0.4c0,0.2-0.4,2.4-7.2,5.7c-0.1,0-0.1,0.1-0.2,0.2s0,0.2,0,0.3c1.1,2,2.2,4.4,2.2,4.8c0,0.1,0,0.3,0.2,0.3
		c0.1,0.1,0.2,0.1,0.4,0c0.4-0.3,3-0.3,5.3-0.2c0.1,0,0.2,0,0.3-0.1s0.1-0.1,0.1-0.2c-0.1-7.5,1.7-8.9,1.9-9
		c0.2-0.1,0.4-0.2,0.4-0.1c0.3,0.2,0.4,1.1-0.4,4.7l-0.1,0.7c-0.2,1.3,0.3,2.1,0.6,2.6c0.4,0.5,1.1,0.9,1.7,1c0.7,0,1.2-0.3,1.4-0.9
		c0.2-0.7,0-1.4-0.6-1.8c-0.6-0.4-0.5-1.7-0.4-2.8l0.1-1.1c0-2.6,0.5-3.2,0.8-3.3c0,0,0,0,0,0c0.2,0.1,0.3,1.1,0.1,2.2
		c-0.2,1.2,0,2.9,0.5,4.4c0.4,1.3,1.5,2,2.3,2c1.2,0.1,1.9-0.6,2.1-1.3c0.1-0.7-0.3-1.3-1.1-1.6c-0.7-0.2-1-1.9-1.2-2.9l0-0.3
		c-0.3-1.7-0.2-3.3,0.2-3.8c0.1-0.1,0.2-0.1,0.2-0.1c0.2,0,0.4,0.8,0.5,1.3l0.1,0.3c0.3,1.5,0.6,3.4,0.7,4.4
		c0.1,1.1,1.2,2.1,2.4,2.3c1,0.2,1.9-0.2,2.3-1.1c0.3-0.5,0.3-1.1,0-1.6c-0.2-0.4-0.5-0.6-0.9-0.6c-1.3,0-2.5-5.6-2.7-8.5
		c-0.1-2.3,0.8-4.5,1.3-4.6c0.3,0.2,0.5,2.1,0.4,3.2c0,0.1,0.1,7.4,1,7.9c0.2,0.1,0.4,0.1,0.5-0.1l0.4-0.3c0.6-0.5,0.7-0.6,1.3-0.3
		c0.2,0.1,0.7,1.2,1.1,1.9c0.3,0.8,0.7,1.5,1,2l0.5,0.6c0.6,0.8,1.4,1.9,1.3,2.4c0,0.1-0.1,0.2-0.2,0.3c-0.5,0.3-0.9,0.4-1.3,0.3
		c-0.4-0.1-0.6-0.5-0.6-0.5c-0.1-0.1-0.2-0.2-0.3-0.2c-0.4,0-0.6,0.3-0.8,0.5c-0.1,0.1-0.1,0.2-0.2,0.2c0,0-0.1,0-0.2,0
		c-0.4-0.1-0.8-0.2-1.4,0.4c-1.1,1-0.3,2.4,0.2,3c0.1,0.1,0.2,0.1,0.4,0.1c0.1,0,0.2-0.1,0.2-0.3c0.1-0.4,0.2-0.6,0.3-0.7
		c0.1-0.1,0.4,0,0.5,0.1c0.1,0,0.3,0.2,1.1,0.3c0.8,0.1,1,0,1.4-0.3c0.1-0.1,0.2-0.2,0.4-0.3c0.5-0.3,1.6,0.2,1.8,0.5
		c0.4,0.7,1.1,2.3,1,2.7c-0.1,0.2-0.2,0.2-0.3,0.2c-0.1,0-0.1,0-0.2,0l-0.7,0.4c-0.1,0.1-0.2,0.2-0.2,0.3s0.1,0.3,0.2,0.3
		c0.4,0.1,0.6,0.2,1,0.2l0.1,0c0.5,0,0.6,0,1.3-0.3c0.4-0.2,0.6-0.9,0.7-1.2c0.4-0.4,0.3-0.9,0.2-1.3c0-0.2-0.1-0.3,0-0.5
		c0-0.1,0-0.1,0-0.1c0.1,0,0.3,0,0.4,0.1l0.1,0c0,0.1,0.1,0.3,0.1,0.4c0,0.3,0,0.5,0.2,0.7c0.2,0.3,0.6,0.2,0.7,0.2c0,0,0.1,0,0.1,0
		c0.1,0.1,0.1,0.3,0.1,0.5c-0.1,0.2,0,0.3,0.1,0.4c0.1,0.1,0.3,0.1,0.4,0c0,0,0.4-0.4,1-1.5c0.2-0.4,0.2-0.9-0.1-1.4
		c-0.4-0.7-1.3-1.2-1.8-1.3c-0.2,0-0.7-0.2-0.7-0.4c0,0,0.1,0,0.2,0.1c0.3,0.2,0.7,0.1,1.1,0c0.3-0.1,0.6-0.2,0.8-0.1
		c0.2,0.1,0.3,0.7,0.3,1c0,0.1,0.1,0.3,0.2,0.3c0.1,0,0.3,0,0.4-0.1c0.5-0.7,0.6-2.4,0.3-3.1c-0.2-0.3-0.4-0.5-0.6-0.6
		c-0.1,0-0.2-0.1-0.4-0.1c0-0.1,0-0.1-0.1-0.2c-0.2-0.2-0.4-0.4-0.7-0.4c-0.8-0.1-1.7,0.6-2.1,0.9c-0.1-0.1-0.3-0.1-0.4-0.1
		c-0.7,0-1.3,0.6-1.4,0.7c-0.1,0.1-0.2,0.2-0.2,0.3c0,0-0.1,0.1-0.1,0.2c0,0,0-0.1,0-0.1c-0.3-1-3.6-7.9-3.7-8.2
		c0-0.1-0.1-0.1-0.1-0.1c0-0.1,0.1-0.2,0.3-0.3c0.3-0.2,0.6-0.4,1-0.6c0.8-0.5,1.3-0.8,1.3-1.1c0-0.1,0-0.3-0.1-0.4
		c-3-3.9-2.8-7.6-2.8-8.8c0.1-1.5,0.2-1.5,0.7-1.6c0,0,0,0,0.1,0c0.3,0.3,0.5,1.2,0.5,1.5c0,0.4-0.2,3.7,0.2,4.3
		c0.3,0.6,0.9,0.9,1.5,0.8c0.6,0,1.1-0.4,1.3-1c0.1-0.4-0.1-1-0.5-2.1c-0.3-0.7-0.6-1.6-0.6-2.1c0-0.7,0.1-1.2,0.4-1.4
		c0.1-0.1,0.2-0.1,0.4-0.1c0.1,0.1,0.4,0.5,0.7,1.5c0.3,1.3,0.3,3,0.3,3.8c-0.1,0.6-0.2,1.1-0.4,1.6c-0.3,1-0.6,2.1-0.1,3.7
		c0.4,1.5,1.5,2.2,2.3,2.2c0.7,0,1.3-0.4,1.6-1.2c0.3-0.7-0.3-1.3-0.8-1.8c-0.2-0.2-0.4-0.4-0.5-0.5c-0.1-0.3,0-1.8,0.1-2.6l0.1-1.4
		c0.1-2.2,0-3-0.4-4.7c-0.1-0.5,0-0.8,0.1-1c0.1-0.1,0.1-0.1,0.2-0.1c0.2,0,0.4,0.2,1.2,2.7c0.4,1.2,0.5,7,0.3,8.6
		c-0.5,5.2,1.7,8.9,4.2,9.8c1,0.4,3,0.5,3.9-0.8c0.4-0.6,0.5-1.1,0.4-1.6c-0.1-0.4-0.3-0.7-0.7-0.9c-0.4-0.2-0.6-0.2-0.9-0.2
		c-0.3,0-0.7-0.1-1.8-0.7c-1.3-0.8-2.3-7-2.6-10.2c-0.2-3-0.7-5.3-0.8-5.7l-0.1-0.4c-0.2-0.6-0.2-0.8,0.1-1c0.1-0.1,0.2-0.1,0.3-0.1
		c0.1,0,0.3,0.2,0.7,1.1c0.3,0.8,0.5,3.8,0.6,6.2l0.1,1.1c0.2,2.6,1.4,6.1,3.2,7.2c1.2,0.8,2.9,0.9,3.7,0.7c0.7-0.2,1.6-1.2,1.8-2.2
		c0.1-0.5-0.1-0.9-0.4-1.3c-0.3-0.4-0.8-0.6-1.2-0.6l-0.2,0c-0.5,0-1,0.1-1.4-0.3c-0.9-0.7-1.4-1.1-1.7-1.8l-0.1-0.1
		c-0.6-1.2-0.9-2.9-1-3.6c-0.1-1.2-0.8-6.1-1.5-7.3c-0.3-0.5-0.2-0.6-0.1-0.7c0.2-0.2,0.2-0.2,0.5,0.1c0.5,0.4,1.8,3.1,2,5.9
		c0.2,2.9,1.1,4.8,2.7,5.9c1,0.6,2.6,1.2,4.3,0.4c1.2-0.6,1.5-1.6,1.4-2.2c-0.1-0.6-0.7-1.1-1.2-1.1c-0.1,0-0.3,0-0.4,0.1
		c-0.5,0.1-1.3,0.4-2.6-0.6c-0.6-0.5-1.7-4-2-5.4c-0.2-1-2-4.2-2.2-4.7c0,0,0-0.1,0-0.1c-0.1-0.2-0.1-0.2,0-0.5c0,0,0.1-0.1,0.1-0.1
		c0.1,0.1,0.2,0.1,0.3,0.2c0.3,0.1,1.5,1.9,2.1,4.3c0.5,2.3,2.4,4.6,3.2,5.1c0.5,0.3,1.6,0.8,3.1,0.7c1.6-0.1,2.5-1.3,2.8-2.3
		c0.2-0.8,0.1-1.5-0.3-1.8c-0.9-0.6-1.7,0-2,0.2c-0.6,0.4-1.3-0.1-2.3-0.9l-0.3-0.3c-2-1.5-3.1-4.1-3.9-5.7l-0.5-1.1l-0.1-0.1
		c-0.4-0.6-0.4-0.6-0.2-0.9c0,0,0.1-0.1,0.1-0.1l0.1,0.1c0.1,0.1,0.2,0.2,0.3,0.3c0.5,0.3,1.4,1.6,2.2,2.8c1.4,2,2.9,4.1,4,4.5
		c0.1,0,0.2,0.1,0.2,0.1c0.7,0.3,2.2,1.1,3.9,0c0.7-0.5,1.8-1.5,1.9-2.6c0-0.5-0.2-1-0.7-1.3c-0.6-0.5-1.5,0-1.9,0.4c0,0,0,0,0,0
		c0,0-0.6,0.7-2-0.1c-2.2-1.2-5.3-4.2-6.5-6c-0.3-0.5-0.3-0.5-0.2-0.6l0,0c0,0,0.3,0,0.5,0.3c0.9,1.1,4.6,4.2,7.1,5.2
		c2.3,0.9,4.8,0,5.8-1c0.7-0.7,1.1-1.6,1-2.3c-0.1-0.5-0.3-0.9-0.7-1.1c-0.9-0.5-1.5,0-1.9,0.3c-0.2,0.1-0.3,0.3-0.5,0.4
		c-1.2,0.5-3.7,0.5-9.1-2.8l-0.1-0.1c-1.3-0.8-1.1-1.1-1-1.3c0,0,0-0.1,0.1-0.1c0.4-0.1,1.4,0.2,4.4,2.1c2.3,1.5,5.5,1.4,7.7,0.9
		c2-0.5,3.4-1.4,4-2.4c0.4-0.7,0.5-1.4,0.3-2.1c-0.4-1.3-1.9-2-1.9-2c-0.2-0.1-0.4,0-0.5,0.2c-0.8,1.5-2.1,2.5-3.9,2.8
		c-3.6,0.7-8.1-1.4-8.8-1.8c0.1-0.1,0.2-0.1,0.4-0.1c0.2,0,0.3-0.2,0.3-0.3c0-0.2-0.1-0.3-0.3-0.3c-0.5-0.1-1.7-0.6-3-1l-4-1.4
		c-0.6-0.2-1.1-0.1-1.6,0.2c-0.9,0.7-0.9,2.2-0.9,2.2c0,0,0,0.1,0,0.1c-0.2,0.3-1,0.9-1.9,0.8c-0.3,0-0.8-0.3-1.1-0.8
		c-0.2-0.4-0.4-1,0-1.7c0.4-0.8,1.1-1.5,2.3-2.2c3.6-2.1,5.3-1.6,7.3-0.7c0.8,0.3,1.1,0.7,1.4,1c0.3,0.3,0.7,0.7,1.3,1.1
		c0.8,0.5,1.4,0.6,1.8,0.4c0.4-0.2,0.5-0.6,0.5-0.6c0-0.1,0-0.3-0.1-0.3c-0.1-0.1-0.3-0.1-0.4,0c-0.4,0.2-0.5,0-0.6,0
		c-0.3-0.3-0.3-1.1,0.1-1.5c0.4-0.4,0.9-0.2,1.3,0.1c0.4,0.3,0.9,1.1,1,1.4c0,0.1,0.2,0.2,0.3,0.2c0.1,0,0.2,0,0.3-0.1
		c0.4-0.5,0.5-1,0.4-1.6c-0.2-1.2-1.5-2.1-1.9-2.4c-0.5-1.5-2-2.3-2.2-2.4l-0.5-0.3c-1-0.5-1.8-0.9-2.3-0.9c-0.3,0-0.4-0.2-0.6-0.4
		c-0.2-0.4-0.5-0.9-1.5-1c-0.1,0-0.3,0-0.4,0.2c-0.1,0.1,0,0.3,0.1,0.4c0.4,0.4,0.4,0.7,0.4,0.7c-0.1,0.2-1,0.3-2,0.1l-0.8-0.2
		c-0.7-0.2-1.2-0.4-2-0.3c-0.2,0-0.3,0.2-0.3,0.3c0,0.2,0.1,0.3,0.3,0.4c0.2,0,0.3,0.1,0.4,0.2c-0.3,0.2-1.2,0.1-1.8,0
		c-0.9-0.1-1.5-0.2-1.8,0.2c-0.1,0.1-0.1,0.2,0,0.3c0,0.1,0.1,0.2,0.3,0.2c0.2,0,0.4,0.1,0.5,0.2l-1.3,0.4c-1.8,0.6-2.8,0.9-4,2
		c0.4-1.5,0.3-2.6,0-4.5l-0.2-1.4c0.1,0,0.2,0.1,0.4,0.3c0.1,0.1,0.2,0.1,0.3,0.1s0.2-0.1,0.3-0.2c0.3-0.4-0.1-1-0.6-1.7
		c-0.4-0.5-0.8-1.2-0.8-1.6c0.1,0,0.2,0.1,0.3,0.2c0.1,0.1,0.3,0.2,0.4,0.1c0.1-0.1,0.2-0.3,0.2-0.4c-0.3-0.8-0.6-1.2-1.1-1.7
		l-0.6-0.6c-0.7-0.8-0.9-1.6-0.8-1.8c0-0.1,0.3-0.1,0.8,0c0.1,0,0.3,0,0.4-0.1c0.1-0.1,0.1-0.3,0-0.4c-0.6-0.8-1.2-0.8-1.6-0.9
		c-0.3,0-0.5,0-0.6-0.3c-0.3-0.4-1-1-1.8-1.6l-0.5-0.4C509.4,490.1,509.2,489.9,508.8,489.7L508.8,489.7z M508.3,491.1
		c0.4,0.2,1,0.8,0.6,0.8c-0.4,0-0.7-0.1-1.1-0.4c-0.6-0.3-0.5-0.5-1.3-0.8L508.3,491.1z M532.1,505.9l1.1,1.5
		c-0.7-0.6-0.8-0.4-1.3-0.8c-0.4-0.2-0.6-0.4-0.8-0.8C530.9,505.3,531.8,505.6,532.1,505.9z M538.7,510.7c0,0,0.6,0.5,0.4,1.1
		c-0.2,0.7-0.8,0.9-1.1,0.9c-1.4,0.1-2.1-0.6-2.9-1.6c-0.1-0.2-1.5-0.7-1.6-1.2c0,0,1.2,0.5,1.9,0.9c0.7,0.5,0.9,0.9,1.4,1.1
		C537.2,512.1,538.5,512.2,538.7,510.7 M501.1,487.4c0,0-0.7-0.3-1.2,0.1c-0.6,0.5-0.5,1.1-0.4,1.4c0.5,1.3,1.4,1.6,2.7,1.9
		c0.2,0,1.3,1,1.8,0.9c0,0-1-0.8-1.7-1.3c-0.7-0.5-1.2-0.4-1.6-0.7C500.4,489.3,499.8,488.2,501.1,487.4"/>
</g>
<g>
	<g>
		<g>
			<path class="st4" d="M706.9,535.4c-39.5-31.4-90.4-10-108.3,28s-35.6,80.1-6.3,78.4s121.3-10,146.6-93.2"/>
		</g>
		<g>
			<path class="st6" d="M590.7,646.4c-6.9,0-12-2.3-15.2-7c-8.7-12.9,0.9-39.3,19.1-77.9c10.2-21.6,30.9-38.4,54-43.7
				c21.6-5,43.2,0,61.1,14.3c1.9,1.5,2.2,4.4,0.7,6.3c-1.5,1.9-4.4,2.2-6.3,0.7c-15.7-12.5-34.7-16.9-53.6-12.5
				c-20.5,4.8-38.9,19.7-47.9,39c-8.2,17.3-27.4,57.9-19.8,69.1c0.5,0.9,2.3,3.4,9.3,3c76.7-4.6,126-35.7,142.6-90.1
				c0.7-2.3,3.2-3.7,5.5-3c2.3,0.7,3.7,3.2,3,5.5c-17.8,58.3-69.8,91.6-150.6,96.4C592,646.3,591.4,646.4,590.7,646.4z"/>
		</g>
	</g>
	<g>
		<g>
			<g>
				<path class="st4" d="M603.2,616.3c0,0-5.6,32.7-36.4,32.7c-30.8,0-17.7-37.3-21.5-61.6c-3.7-24.3-18.7-56,3.7-70.9
					c22.4-14.9,49.4,28.9,54.1,45.7C609.8,584.6,608.8,598.6,603.2,616.3z"/>
			</g>
			<g>
				<path class="st6" d="M566.8,653.2c-7.7,0-13.8-2.2-18-6.5c-8.1-8.4-7.6-23.1-7.2-37.3c0.2-7.4,0.5-15-0.5-21.4
					c-0.8-5.2-2.1-10.7-3.5-16.5c-5.1-21.2-10.8-45.3,9.1-58.5c6.2-4.1,13.3-4.8,20.6-2.1c19,7.1,36.1,36.5,39.9,50.2
					c7.1,24.4,5.4,39.1,0,56.2C605,629.9,593.8,653.2,566.8,653.2z M558.8,517.6c-2.6,0-5.1,0.8-7.4,2.3c-15,10-10.4,29.2-5.6,49.6
					c1.4,5.7,2.8,11.7,3.6,17.2c1.1,7.1,0.8,15.1,0.6,22.9c-0.4,12.4-0.8,25.3,4.8,31.2c2.6,2.7,6.5,3.9,11.9,3.9
					c26.8,0,32-28,32.2-29.2l0.1-0.5c5.1-16.1,6.6-29.1,0-51.7c-3.5-12.5-19.3-38.9-34.8-44.7C562.5,518,560.6,517.6,558.8,517.6z"
					/>
			</g>
		</g>
	</g>
</g>
<g>
	<path class="st13" d="M644.1,254.2c-57.3,18.7-87.6,21.8-128.9,14.3l13-55.5c4.6-22,22.8-38.6,45.2-41.1h0
		c24.3-2.7,47.2,11.9,55,35.1L644.1,254.2z"/>
	<path class="st6" d="M553.9,276.8c-12.8,0-25.5-1.3-39.5-3.9c-1.2-0.2-2.3-0.9-3-2s-0.9-2.3-0.6-3.5l13-55.4
		c5-24,24.7-41.9,49.1-44.6c26.2-2.9,51.4,13.1,59.8,38.1l15.7,47.2c0.4,1.1,0.3,2.4-0.3,3.4c-0.5,1.1-1.5,1.9-2.6,2.2
		C606.7,271.1,580.1,276.8,553.9,276.8z M520.7,264.9c37.6,6.2,66.5,2.8,117.7-13.6l-14.2-42.9c-7.1-21-28.2-34.5-50.3-32
		c-20.5,2.3-37.1,17.4-41.3,37.6c0,0,0,0.1,0,0.1L520.7,264.9z"/>
</g>
<g>
	<path class="st14" d="M581.7,191.2c4.1-4,12.4-3.4,17.6-0.4c4.2,2.4,6.4,7.8,10.5,18.4c3.7,9.5,5.5,14.4,3.7,17.6
		C610.9,231.7,573.5,199.3,581.7,191.2z"/>
</g>
</svg>
